<?xml version="1.0" encoding="UTF-8" standalone="no"?>
<svg
   xmlns:dc="http://purl.org/dc/elements/1.1/"
   xmlns:cc="http://creativecommons.org/ns#"
   xmlns:rdf="http://www.w3.org/1999/02/22-rdf-syntax-ns#"
   xmlns:svg="http://www.w3.org/2000/svg"
   xmlns="http://www.w3.org/2000/svg"
   xmlns:xlink="http://www.w3.org/1999/xlink"
   xmlns:sodipodi="http://sodipodi.sourceforge.net/DTD/sodipodi-0.dtd"
   xmlns:inkscape="http://www.inkscape.org/namespaces/inkscape"
   width="380"
   height="360"
   id="svg2"
   version="1.1"
   inkscape:version="1.0.2 (e86c870879, 2021-01-15)"
   sodipodi:docname="ubuntu-unity-square-color-black.svg"
   inkscape:export-filename="/home/alfredo/ubuntu-gnome-design.png"
   inkscape:export-xdpi="90"
   inkscape:export-ydpi="90">
  <defs
     id="defs4">
    <linearGradient
       y2="382.5"
       x2="990"
       y1="382.5"
       x1="601.20001"
       gradientTransform="matrix(-0.511281,0,0,0.42455,1578.612,-1.981893e-7)"
       gradientUnits="userSpaceOnUse"
       id="linearGradient63059"
       xlink:href="#linearGradient7336"
       inkscape:collect="always" />
    <linearGradient
       y2="360"
       x2="990"
       y1="360"
       x1="380.92273"
       gradientTransform="matrix(-0.501192,0,0,0.42455,1568.625,-1.981893e-7)"
       gradientUnits="userSpaceOnUse"
       id="linearGradient63057"
       xlink:href="#linearGradient8221"
       inkscape:collect="always" />
    <linearGradient
       id="linearGradient7336">
      <stop
         id="stop7338"
         offset="0"
         style="stop-color:#ffffff;stop-opacity:1;" />
      <stop
         id="stop7340"
         offset="1"
         style="stop-color:#6fc1ff;stop-opacity:0;" />
    </linearGradient>
    <linearGradient
       id="linearGradient8221">
      <stop
         id="stop8223"
         offset="0"
         style="stop-color:#6fc1ff;stop-opacity:1;" />
      <stop
         id="stop8225"
         offset="1"
         style="stop-color:#6fc1ff;stop-opacity:0;" />
    </linearGradient>
    <linearGradient
       id="linearGradient57798">
      <stop
         id="stop57800"
         offset="0"
         style="stop-color:#ababab;stop-opacity:1;" />
      <stop
         id="stop57802"
         offset="1"
         style="stop-color:#000000;stop-opacity:0;" />
    </linearGradient>
    <linearGradient
       id="linearGradient57806">
      <stop
         style="stop-color:#ffffff;stop-opacity:1;"
         offset="0"
         id="stop57808" />
      <stop
         style="stop-color:#96bcd8;stop-opacity:0"
         offset="1"
         id="stop57810" />
    </linearGradient>
    <linearGradient
       id="linearGradient58210">
      <stop
         id="stop58212"
         offset="0"
         style="stop-color:#30a5ff;stop-opacity:1;" />
      <stop
         id="stop58214"
         offset="1"
         style="stop-color:#a6d9ff;stop-opacity:1;" />
    </linearGradient>
    <linearGradient
       id="linearGradient22774">
      <stop
         id="stop22776"
         offset="0"
         style="stop-color:#dd9144;stop-opacity:1;" />
      <stop
         style="stop-color:#b06f2e;stop-opacity:1;"
         offset="0"
         id="stop22784" />
      <stop
         style="stop-color:#633406;stop-opacity:1;"
         offset="1"
         id="stop22782" />
    </linearGradient>
    <linearGradient
       id="linearGradient22786">
      <stop
         id="stop22788"
         offset="0"
         style="stop-color:#737373;stop-opacity:1;" />
      <stop
         id="stop22790"
         offset="1"
         style="stop-color:#cdcdcd;stop-opacity:1;" />
    </linearGradient>
    <linearGradient
       id="linearGradient24542">
      <stop
         id="stop24544"
         offset="0"
         style="stop-color:#7c7c7c;stop-opacity:1;" />
      <stop
         id="stop24546"
         offset="1"
         style="stop-color:#323232;stop-opacity:1;" />
    </linearGradient>
    <linearGradient
       id="linearGradient30914">
      <stop
         id="stop30916"
         offset="0"
         style="stop-color:#545f00;stop-opacity:1;" />
      <stop
         id="stop30918"
         offset="1"
         style="stop-color:#000000;stop-opacity:1;" />
    </linearGradient>
    <linearGradient
       id="linearGradient30922">
      <stop
         id="stop30924"
         offset="0"
         style="stop-color:#323232;stop-opacity:1;" />
      <stop
         id="stop30926"
         offset="1"
         style="stop-color:#ffffff;stop-opacity:1;" />
    </linearGradient>
    <linearGradient
       id="linearGradient30930">
      <stop
         id="stop30932"
         offset="0"
         style="stop-color:#7c7c7c;stop-opacity:1;" />
      <stop
         id="stop30934"
         offset="1"
         style="stop-color:#ffffff;stop-opacity:1;" />
    </linearGradient>
    <linearGradient
       id="linearGradient30944">
      <stop
         id="stop30946"
         offset="0"
         style="stop-color:#ffffff;stop-opacity:1;" />
      <stop
         id="stop30948"
         offset="1"
         style="stop-color:#7e7e7e;stop-opacity:1;" />
    </linearGradient>
    <linearGradient
       id="linearGradient6016">
      <stop
         id="stop6018"
         offset="0"
         style="stop-color:#265ba7;stop-opacity:1;" />
      <stop
         id="stop6020"
         offset="1"
         style="stop-color:#1c4177;stop-opacity:1;" />
    </linearGradient>
    <inkscape:perspective
       sodipodi:type="inkscape:persp3d"
       inkscape:vp_x="0 : 0.5 : 1"
       inkscape:vp_y="0 : 1000 : 0"
       inkscape:vp_z="1 : 0.5 : 1"
       inkscape:persp3d-origin="0.5 : 0.33333333 : 1"
       id="perspective2861" />
    <inkscape:perspective
       sodipodi:type="inkscape:persp3d"
       inkscape:vp_x="0 : 0.5 : 1"
       inkscape:vp_y="0 : 1000 : 0"
       inkscape:vp_z="1 : 0.5 : 1"
       inkscape:persp3d-origin="0.5 : 0.33333333 : 1"
       id="perspective3415" />
    <inkscape:perspective
       sodipodi:type="inkscape:persp3d"
       inkscape:vp_x="0 : 0.5 : 1"
       inkscape:vp_y="0 : 1000 : 0"
       inkscape:vp_z="1 : 0.5 : 1"
       inkscape:persp3d-origin="0.5 : 0.33333333 : 1"
       id="perspective3135" />
    <inkscape:perspective
       id="perspective29"
       inkscape:persp3d-origin="389.8085 : 56.692998 : 1"
       inkscape:vp_z="779.617 : 85.039497 : 1"
       inkscape:vp_y="0 : 1000 : 0"
       inkscape:vp_x="0 : 85.039497 : 1"
       sodipodi:type="inkscape:persp3d" />
    <linearGradient
       y2="382.5"
       x2="990"
       y1="382.5"
       x1="601.20001"
       gradientTransform="matrix(-0.511281,0,0,0.42455,1578.612,-1.981893e-7)"
       gradientUnits="userSpaceOnUse"
       id="linearGradient63059-9"
       xlink:href="#linearGradient7336-3"
       inkscape:collect="always" />
    <linearGradient
       y2="360"
       x2="990"
       y1="360"
       x1="380.92273"
       gradientTransform="matrix(-0.501192,0,0,0.42455,1568.625,-1.981893e-7)"
       gradientUnits="userSpaceOnUse"
       id="linearGradient63057-9"
       xlink:href="#linearGradient8221-3"
       inkscape:collect="always" />
    <linearGradient
       id="linearGradient7336-3">
      <stop
         id="stop7338-4"
         offset="0"
         style="stop-color:#ffffff;stop-opacity:1;" />
      <stop
         id="stop7340-5"
         offset="1"
         style="stop-color:#6fc1ff;stop-opacity:0;" />
    </linearGradient>
    <linearGradient
       id="linearGradient8221-3">
      <stop
         id="stop8223-8"
         offset="0"
         style="stop-color:#6fc1ff;stop-opacity:1;" />
      <stop
         id="stop8225-1"
         offset="1"
         style="stop-color:#6fc1ff;stop-opacity:0;" />
    </linearGradient>
    <linearGradient
       id="linearGradient57798-0">
      <stop
         id="stop57800-9"
         offset="0"
         style="stop-color:#ababab;stop-opacity:1;" />
      <stop
         id="stop57802-0"
         offset="1"
         style="stop-color:#000000;stop-opacity:0;" />
    </linearGradient>
    <linearGradient
       id="linearGradient57806-9">
      <stop
         style="stop-color:#ffffff;stop-opacity:1;"
         offset="0"
         id="stop57808-2" />
      <stop
         style="stop-color:#96bcd8;stop-opacity:0"
         offset="1"
         id="stop57810-4" />
    </linearGradient>
    <linearGradient
       id="linearGradient58210-2">
      <stop
         id="stop58212-6"
         offset="0"
         style="stop-color:#30a5ff;stop-opacity:1;" />
      <stop
         id="stop58214-1"
         offset="1"
         style="stop-color:#a6d9ff;stop-opacity:1;" />
    </linearGradient>
    <linearGradient
       id="linearGradient22774-6">
      <stop
         id="stop22776-6"
         offset="0"
         style="stop-color:#dd9144;stop-opacity:1;" />
      <stop
         style="stop-color:#b06f2e;stop-opacity:1;"
         offset="0"
         id="stop22784-0" />
      <stop
         style="stop-color:#633406;stop-opacity:1;"
         offset="1"
         id="stop22782-7" />
    </linearGradient>
    <linearGradient
       id="linearGradient22786-5">
      <stop
         id="stop22788-8"
         offset="0"
         style="stop-color:#737373;stop-opacity:1;" />
      <stop
         id="stop22790-8"
         offset="1"
         style="stop-color:#cdcdcd;stop-opacity:1;" />
    </linearGradient>
    <linearGradient
       id="linearGradient24542-5">
      <stop
         id="stop24544-6"
         offset="0"
         style="stop-color:#7c7c7c;stop-opacity:1;" />
      <stop
         id="stop24546-8"
         offset="1"
         style="stop-color:#323232;stop-opacity:1;" />
    </linearGradient>
    <linearGradient
       id="linearGradient30914-1">
      <stop
         id="stop30916-1"
         offset="0"
         style="stop-color:#545f00;stop-opacity:1;" />
      <stop
         id="stop30918-7"
         offset="1"
         style="stop-color:#000000;stop-opacity:1;" />
    </linearGradient>
    <linearGradient
       id="linearGradient30922-5">
      <stop
         id="stop30924-3"
         offset="0"
         style="stop-color:#323232;stop-opacity:1;" />
      <stop
         id="stop30926-0"
         offset="1"
         style="stop-color:#ffffff;stop-opacity:1;" />
    </linearGradient>
    <linearGradient
       id="linearGradient30930-0">
      <stop
         id="stop30932-5"
         offset="0"
         style="stop-color:#7c7c7c;stop-opacity:1;" />
      <stop
         id="stop30934-2"
         offset="1"
         style="stop-color:#ffffff;stop-opacity:1;" />
    </linearGradient>
    <linearGradient
       id="linearGradient30944-3">
      <stop
         id="stop30946-9"
         offset="0"
         style="stop-color:#ffffff;stop-opacity:1;" />
      <stop
         id="stop30948-1"
         offset="1"
         style="stop-color:#7e7e7e;stop-opacity:1;" />
    </linearGradient>
    <linearGradient
       id="linearGradient6016-8">
      <stop
         id="stop6018-7"
         offset="0"
         style="stop-color:#265ba7;stop-opacity:1;" />
      <stop
         id="stop6020-3"
         offset="1"
         style="stop-color:#1c4177;stop-opacity:1;" />
    </linearGradient>
    <linearGradient
       id="linearGradient6016-8-8">
      <stop
         style="stop-color:#265ba7;stop-opacity:1;"
         offset="0"
         id="stop6018-7-0" />
      <stop
         style="stop-color:#1c4177;stop-opacity:1;"
         offset="1"
         id="stop6020-3-2" />
    </linearGradient>
    <linearGradient
       id="linearGradient30944-3-4">
      <stop
         style="stop-color:#ffffff;stop-opacity:1;"
         offset="0"
         id="stop30946-9-6" />
      <stop
         style="stop-color:#7e7e7e;stop-opacity:1;"
         offset="1"
         id="stop30948-1-3" />
    </linearGradient>
    <linearGradient
       id="linearGradient30930-0-3">
      <stop
         style="stop-color:#7c7c7c;stop-opacity:1;"
         offset="0"
         id="stop30932-5-8" />
      <stop
         style="stop-color:#ffffff;stop-opacity:1;"
         offset="1"
         id="stop30934-2-7" />
    </linearGradient>
    <linearGradient
       id="linearGradient30922-5-3">
      <stop
         style="stop-color:#323232;stop-opacity:1;"
         offset="0"
         id="stop30924-3-0" />
      <stop
         style="stop-color:#ffffff;stop-opacity:1;"
         offset="1"
         id="stop30926-0-7" />
    </linearGradient>
    <linearGradient
       id="linearGradient30914-1-4">
      <stop
         style="stop-color:#545f00;stop-opacity:1;"
         offset="0"
         id="stop30916-1-9" />
      <stop
         style="stop-color:#000000;stop-opacity:1;"
         offset="1"
         id="stop30918-7-8" />
    </linearGradient>
    <linearGradient
       id="linearGradient24542-5-8">
      <stop
         style="stop-color:#7c7c7c;stop-opacity:1;"
         offset="0"
         id="stop24544-6-2" />
      <stop
         style="stop-color:#323232;stop-opacity:1;"
         offset="1"
         id="stop24546-8-5" />
    </linearGradient>
    <linearGradient
       id="linearGradient22786-5-2">
      <stop
         style="stop-color:#737373;stop-opacity:1;"
         offset="0"
         id="stop22788-8-9" />
      <stop
         style="stop-color:#cdcdcd;stop-opacity:1;"
         offset="1"
         id="stop22790-8-9" />
    </linearGradient>
    <linearGradient
       id="linearGradient22774-6-4">
      <stop
         style="stop-color:#dd9144;stop-opacity:1;"
         offset="0"
         id="stop22776-6-5" />
      <stop
         id="stop22784-0-9"
         offset="0"
         style="stop-color:#b06f2e;stop-opacity:1;" />
      <stop
         id="stop22782-7-7"
         offset="1"
         style="stop-color:#633406;stop-opacity:1;" />
    </linearGradient>
    <linearGradient
       id="linearGradient58210-2-5">
      <stop
         style="stop-color:#30a5ff;stop-opacity:1;"
         offset="0"
         id="stop58212-6-7" />
      <stop
         style="stop-color:#a6d9ff;stop-opacity:1;"
         offset="1"
         id="stop58214-1-3" />
    </linearGradient>
    <linearGradient
       id="linearGradient57806-9-5">
      <stop
         id="stop57808-2-3"
         offset="0"
         style="stop-color:#ffffff;stop-opacity:1;" />
      <stop
         id="stop57810-4-2"
         offset="1"
         style="stop-color:#96bcd8;stop-opacity:0" />
    </linearGradient>
    <linearGradient
       id="linearGradient57798-0-2">
      <stop
         style="stop-color:#ababab;stop-opacity:1;"
         offset="0"
         id="stop57800-9-2" />
      <stop
         style="stop-color:#000000;stop-opacity:0;"
         offset="1"
         id="stop57802-0-7" />
    </linearGradient>
    <linearGradient
       id="linearGradient8221-3-1">
      <stop
         style="stop-color:#6fc1ff;stop-opacity:1;"
         offset="0"
         id="stop8223-8-6" />
      <stop
         style="stop-color:#6fc1ff;stop-opacity:0;"
         offset="1"
         id="stop8225-1-6" />
    </linearGradient>
    <linearGradient
       id="linearGradient7336-3-8">
      <stop
         style="stop-color:#ffffff;stop-opacity:1;"
         offset="0"
         id="stop7338-4-7" />
      <stop
         style="stop-color:#6fc1ff;stop-opacity:0;"
         offset="1"
         id="stop7340-5-9" />
    </linearGradient>
    <linearGradient
       inkscape:collect="always"
       xlink:href="#linearGradient8221-3-1"
       id="linearGradient63057-9-7"
       gradientUnits="userSpaceOnUse"
       gradientTransform="matrix(-0.501192,0,0,0.42455,1568.625,-1.981893e-7)"
       x1="380.92273"
       y1="360"
       x2="990"
       y2="360" />
    <linearGradient
       inkscape:collect="always"
       xlink:href="#linearGradient7336-3-8"
       id="linearGradient63059-9-1"
       gradientUnits="userSpaceOnUse"
       gradientTransform="matrix(-0.511281,0,0,0.42455,1578.612,-1.981893e-7)"
       x1="601.20001"
       y1="382.5"
       x2="990"
       y2="382.5" />
    <inkscape:perspective
       sodipodi:type="inkscape:persp3d"
       inkscape:vp_x="0 : 85.039497 : 1"
       inkscape:vp_y="0 : 1000 : 0"
       inkscape:vp_z="779.617 : 85.039497 : 1"
       inkscape:persp3d-origin="389.8085 : 56.692998 : 1"
       id="perspective29-6" />
    <inkscape:perspective
       id="perspective3135-3"
       inkscape:persp3d-origin="0.5 : 0.33333333 : 1"
       inkscape:vp_z="1 : 0.5 : 1"
       inkscape:vp_y="0 : 1000 : 0"
       inkscape:vp_x="0 : 0.5 : 1"
       sodipodi:type="inkscape:persp3d" />
    <inkscape:perspective
       id="perspective3415-6"
       inkscape:persp3d-origin="0.5 : 0.33333333 : 1"
       inkscape:vp_z="1 : 0.5 : 1"
       inkscape:vp_y="0 : 1000 : 0"
       inkscape:vp_x="0 : 0.5 : 1"
       sodipodi:type="inkscape:persp3d" />
    <inkscape:perspective
       id="perspective2861-4"
       inkscape:persp3d-origin="0.5 : 0.33333333 : 1"
       inkscape:vp_z="1 : 0.5 : 1"
       inkscape:vp_y="0 : 1000 : 0"
       inkscape:vp_x="0 : 0.5 : 1"
       sodipodi:type="inkscape:persp3d" />
    <linearGradient
       id="linearGradient6016-3">
      <stop
         style="stop-color:#265ba7;stop-opacity:1;"
         offset="0"
         id="stop6018-1" />
      <stop
         style="stop-color:#1c4177;stop-opacity:1;"
         offset="1"
         id="stop6020-4" />
    </linearGradient>
    <linearGradient
       id="linearGradient30944-7">
      <stop
         style="stop-color:#ffffff;stop-opacity:1;"
         offset="0"
         id="stop30946-0" />
      <stop
         style="stop-color:#7e7e7e;stop-opacity:1;"
         offset="1"
         id="stop30948-2" />
    </linearGradient>
    <linearGradient
       id="linearGradient30930-8">
      <stop
         style="stop-color:#7c7c7c;stop-opacity:1;"
         offset="0"
         id="stop30932-6" />
      <stop
         style="stop-color:#ffffff;stop-opacity:1;"
         offset="1"
         id="stop30934-3" />
    </linearGradient>
    <linearGradient
       id="linearGradient30922-2">
      <stop
         style="stop-color:#323232;stop-opacity:1;"
         offset="0"
         id="stop30924-0" />
      <stop
         style="stop-color:#ffffff;stop-opacity:1;"
         offset="1"
         id="stop30926-7" />
    </linearGradient>
    <linearGradient
       id="linearGradient30914-8">
      <stop
         style="stop-color:#545f00;stop-opacity:1;"
         offset="0"
         id="stop30916-3" />
      <stop
         style="stop-color:#000000;stop-opacity:1;"
         offset="1"
         id="stop30918-9" />
    </linearGradient>
    <linearGradient
       id="linearGradient24542-4">
      <stop
         style="stop-color:#7c7c7c;stop-opacity:1;"
         offset="0"
         id="stop24544-1" />
      <stop
         style="stop-color:#323232;stop-opacity:1;"
         offset="1"
         id="stop24546-1" />
    </linearGradient>
    <linearGradient
       id="linearGradient22786-1">
      <stop
         style="stop-color:#737373;stop-opacity:1;"
         offset="0"
         id="stop22788-86" />
      <stop
         style="stop-color:#cdcdcd;stop-opacity:1;"
         offset="1"
         id="stop22790-1" />
    </linearGradient>
    <linearGradient
       id="linearGradient22774-4">
      <stop
         style="stop-color:#dd9144;stop-opacity:1;"
         offset="0"
         id="stop22776-9" />
      <stop
         id="stop22784-6"
         offset="0"
         style="stop-color:#b06f2e;stop-opacity:1;" />
      <stop
         id="stop22782-0"
         offset="1"
         style="stop-color:#633406;stop-opacity:1;" />
    </linearGradient>
    <linearGradient
       id="linearGradient58210-7">
      <stop
         style="stop-color:#30a5ff;stop-opacity:1;"
         offset="0"
         id="stop58212-0" />
      <stop
         style="stop-color:#a6d9ff;stop-opacity:1;"
         offset="1"
         id="stop58214-5" />
    </linearGradient>
    <linearGradient
       id="linearGradient57806-92">
      <stop
         id="stop57808-1"
         offset="0"
         style="stop-color:#ffffff;stop-opacity:1;" />
      <stop
         id="stop57810-3"
         offset="1"
         style="stop-color:#96bcd8;stop-opacity:0" />
    </linearGradient>
    <linearGradient
       id="linearGradient57798-3">
      <stop
         style="stop-color:#ababab;stop-opacity:1;"
         offset="0"
         id="stop57800-8" />
      <stop
         style="stop-color:#000000;stop-opacity:0;"
         offset="1"
         id="stop57802-6" />
    </linearGradient>
    <linearGradient
       id="linearGradient8221-4">
      <stop
         style="stop-color:#6fc1ff;stop-opacity:1;"
         offset="0"
         id="stop8223-4" />
      <stop
         style="stop-color:#6fc1ff;stop-opacity:0;"
         offset="1"
         id="stop8225-7" />
    </linearGradient>
    <linearGradient
       id="linearGradient7336-5">
      <stop
         style="stop-color:#ffffff;stop-opacity:1;"
         offset="0"
         id="stop7338-7" />
      <stop
         style="stop-color:#6fc1ff;stop-opacity:0;"
         offset="1"
         id="stop7340-4" />
    </linearGradient>
    <linearGradient
       inkscape:collect="always"
       xlink:href="#linearGradient8221-4"
       id="linearGradient63057-3"
       gradientUnits="userSpaceOnUse"
       gradientTransform="matrix(-0.501192,0,0,0.42455,1568.625,-1.981893e-7)"
       x1="380.92273"
       y1="360"
       x2="990"
       y2="360" />
    <linearGradient
       inkscape:collect="always"
       xlink:href="#linearGradient7336-5"
       id="linearGradient63059-8"
       gradientUnits="userSpaceOnUse"
       gradientTransform="matrix(-0.511281,0,0,0.42455,1578.612,-1.981893e-7)"
       x1="601.20001"
       y1="382.5"
       x2="990"
       y2="382.5" />
    <clipPath
       clipPathUnits="userSpaceOnUse"
       id="clipPath3743">
      <rect
         style="color:#000000;fill:#ffffff;fill-opacity:1;fill-rule:nonzero;stroke:none;stroke-width:1;marker:none;visibility:visible;display:inline;overflow:visible;enable-background:accumulate"
         id="rect3745"
         width="456.79099"
         height="395.27271"
         x="-87.687256"
         y="820.19275" />
    </clipPath>
    <linearGradient
       y2="382.5"
       x2="990"
       y1="382.5"
       x1="601.20001"
       gradientTransform="matrix(-0.511281,0,0,0.42455,1578.612,-1.981893e-7)"
       gradientUnits="userSpaceOnUse"
       id="linearGradient63059-8-3"
       xlink:href="#linearGradient7336-5-8"
       inkscape:collect="always" />
    <linearGradient
       y2="360"
       x2="990"
       y1="360"
       x1="380.92273"
       gradientTransform="matrix(-0.501192,0,0,0.42455,1568.625,-1.981893e-7)"
       gradientUnits="userSpaceOnUse"
       id="linearGradient63057-3-4"
       xlink:href="#linearGradient8221-4-0"
       inkscape:collect="always" />
    <linearGradient
       id="linearGradient7336-5-8">
      <stop
         id="stop7338-7-9"
         offset="0"
         style="stop-color:#ffffff;stop-opacity:1;" />
      <stop
         id="stop7340-4-0"
         offset="1"
         style="stop-color:#6fc1ff;stop-opacity:0;" />
    </linearGradient>
    <linearGradient
       id="linearGradient8221-4-0">
      <stop
         id="stop8223-4-9"
         offset="0"
         style="stop-color:#6fc1ff;stop-opacity:1;" />
      <stop
         id="stop8225-7-4"
         offset="1"
         style="stop-color:#6fc1ff;stop-opacity:0;" />
    </linearGradient>
    <linearGradient
       id="linearGradient57798-3-3">
      <stop
         id="stop57800-8-7"
         offset="0"
         style="stop-color:#ababab;stop-opacity:1;" />
      <stop
         id="stop57802-6-1"
         offset="1"
         style="stop-color:#000000;stop-opacity:0;" />
    </linearGradient>
    <linearGradient
       id="linearGradient57806-92-9">
      <stop
         style="stop-color:#ffffff;stop-opacity:1;"
         offset="0"
         id="stop57808-1-2" />
      <stop
         style="stop-color:#96bcd8;stop-opacity:0"
         offset="1"
         id="stop57810-3-3" />
    </linearGradient>
    <linearGradient
       id="linearGradient58210-7-3">
      <stop
         id="stop58212-0-2"
         offset="0"
         style="stop-color:#30a5ff;stop-opacity:1;" />
      <stop
         id="stop58214-5-4"
         offset="1"
         style="stop-color:#a6d9ff;stop-opacity:1;" />
    </linearGradient>
    <linearGradient
       id="linearGradient22774-4-6">
      <stop
         id="stop22776-9-2"
         offset="0"
         style="stop-color:#dd9144;stop-opacity:1;" />
      <stop
         style="stop-color:#b06f2e;stop-opacity:1;"
         offset="0"
         id="stop22784-6-3" />
      <stop
         style="stop-color:#633406;stop-opacity:1;"
         offset="1"
         id="stop22782-0-2" />
    </linearGradient>
    <linearGradient
       id="linearGradient22786-1-9">
      <stop
         id="stop22788-86-0"
         offset="0"
         style="stop-color:#737373;stop-opacity:1;" />
      <stop
         id="stop22790-1-2"
         offset="1"
         style="stop-color:#cdcdcd;stop-opacity:1;" />
    </linearGradient>
    <linearGradient
       id="linearGradient24542-4-9">
      <stop
         id="stop24544-1-7"
         offset="0"
         style="stop-color:#7c7c7c;stop-opacity:1;" />
      <stop
         id="stop24546-1-3"
         offset="1"
         style="stop-color:#323232;stop-opacity:1;" />
    </linearGradient>
    <linearGradient
       id="linearGradient30914-8-2">
      <stop
         id="stop30916-3-1"
         offset="0"
         style="stop-color:#545f00;stop-opacity:1;" />
      <stop
         id="stop30918-9-8"
         offset="1"
         style="stop-color:#000000;stop-opacity:1;" />
    </linearGradient>
    <linearGradient
       id="linearGradient30922-2-6">
      <stop
         id="stop30924-0-4"
         offset="0"
         style="stop-color:#323232;stop-opacity:1;" />
      <stop
         id="stop30926-7-4"
         offset="1"
         style="stop-color:#ffffff;stop-opacity:1;" />
    </linearGradient>
    <linearGradient
       id="linearGradient30930-8-6">
      <stop
         id="stop30932-6-8"
         offset="0"
         style="stop-color:#7c7c7c;stop-opacity:1;" />
      <stop
         id="stop30934-3-6"
         offset="1"
         style="stop-color:#ffffff;stop-opacity:1;" />
    </linearGradient>
    <linearGradient
       id="linearGradient30944-7-7">
      <stop
         id="stop30946-0-2"
         offset="0"
         style="stop-color:#ffffff;stop-opacity:1;" />
      <stop
         id="stop30948-2-0"
         offset="1"
         style="stop-color:#7e7e7e;stop-opacity:1;" />
    </linearGradient>
    <linearGradient
       id="linearGradient6016-3-1">
      <stop
         id="stop6018-1-3"
         offset="0"
         style="stop-color:#265ba7;stop-opacity:1;" />
      <stop
         id="stop6020-4-8"
         offset="1"
         style="stop-color:#1c4177;stop-opacity:1;" />
    </linearGradient>
    <inkscape:perspective
       sodipodi:type="inkscape:persp3d"
       inkscape:vp_x="0 : 0.5 : 1"
       inkscape:vp_y="0 : 1000 : 0"
       inkscape:vp_z="1 : 0.5 : 1"
       inkscape:persp3d-origin="0.5 : 0.33333333 : 1"
       id="perspective2861-4-7" />
    <inkscape:perspective
       sodipodi:type="inkscape:persp3d"
       inkscape:vp_x="0 : 0.5 : 1"
       inkscape:vp_y="0 : 1000 : 0"
       inkscape:vp_z="1 : 0.5 : 1"
       inkscape:persp3d-origin="0.5 : 0.33333333 : 1"
       id="perspective3415-6-9" />
    <inkscape:perspective
       sodipodi:type="inkscape:persp3d"
       inkscape:vp_x="0 : 0.5 : 1"
       inkscape:vp_y="0 : 1000 : 0"
       inkscape:vp_z="1 : 0.5 : 1"
       inkscape:persp3d-origin="0.5 : 0.33333333 : 1"
       id="perspective3135-3-4" />
    <inkscape:perspective
       id="perspective29-6-1"
       inkscape:persp3d-origin="389.8085 : 56.692998 : 1"
       inkscape:vp_z="779.617 : 85.039497 : 1"
       inkscape:vp_y="0 : 1000 : 0"
       inkscape:vp_x="0 : 85.039497 : 1"
       sodipodi:type="inkscape:persp3d" />
    <linearGradient
       y2="382.5"
       x2="990"
       y1="382.5"
       x1="601.20001"
       gradientTransform="matrix(-0.511281,0,0,0.42455,1578.612,-1.981893e-7)"
       gradientUnits="userSpaceOnUse"
       id="linearGradient63059-9-1-7"
       xlink:href="#linearGradient7336-3-8-2"
       inkscape:collect="always" />
    <linearGradient
       y2="360"
       x2="990"
       y1="360"
       x1="380.92273"
       gradientTransform="matrix(-0.501192,0,0,0.42455,1568.625,-1.981893e-7)"
       gradientUnits="userSpaceOnUse"
       id="linearGradient63057-9-7-9"
       xlink:href="#linearGradient8221-3-1-1"
       inkscape:collect="always" />
    <linearGradient
       id="linearGradient7336-3-8-2">
      <stop
         id="stop7338-4-7-8"
         offset="0"
         style="stop-color:#ffffff;stop-opacity:1;" />
      <stop
         id="stop7340-5-9-4"
         offset="1"
         style="stop-color:#6fc1ff;stop-opacity:0;" />
    </linearGradient>
    <linearGradient
       id="linearGradient8221-3-1-1">
      <stop
         id="stop8223-8-6-9"
         offset="0"
         style="stop-color:#6fc1ff;stop-opacity:1;" />
      <stop
         id="stop8225-1-6-5"
         offset="1"
         style="stop-color:#6fc1ff;stop-opacity:0;" />
    </linearGradient>
    <linearGradient
       id="linearGradient57798-0-2-6">
      <stop
         id="stop57800-9-2-3"
         offset="0"
         style="stop-color:#ababab;stop-opacity:1;" />
      <stop
         id="stop57802-0-7-0"
         offset="1"
         style="stop-color:#000000;stop-opacity:0;" />
    </linearGradient>
    <linearGradient
       id="linearGradient57806-9-5-5">
      <stop
         style="stop-color:#ffffff;stop-opacity:1;"
         offset="0"
         id="stop57808-2-3-4" />
      <stop
         style="stop-color:#96bcd8;stop-opacity:0"
         offset="1"
         id="stop57810-4-2-4" />
    </linearGradient>
    <linearGradient
       id="linearGradient58210-2-5-6">
      <stop
         id="stop58212-6-7-8"
         offset="0"
         style="stop-color:#30a5ff;stop-opacity:1;" />
      <stop
         id="stop58214-1-3-6"
         offset="1"
         style="stop-color:#a6d9ff;stop-opacity:1;" />
    </linearGradient>
    <linearGradient
       id="linearGradient22774-6-4-7">
      <stop
         id="stop22776-6-5-6"
         offset="0"
         style="stop-color:#dd9144;stop-opacity:1;" />
      <stop
         style="stop-color:#b06f2e;stop-opacity:1;"
         offset="0"
         id="stop22784-0-9-3" />
      <stop
         style="stop-color:#633406;stop-opacity:1;"
         offset="1"
         id="stop22782-7-7-0" />
    </linearGradient>
    <linearGradient
       id="linearGradient22786-5-2-3">
      <stop
         id="stop22788-8-9-6"
         offset="0"
         style="stop-color:#737373;stop-opacity:1;" />
      <stop
         id="stop22790-8-9-2"
         offset="1"
         style="stop-color:#cdcdcd;stop-opacity:1;" />
    </linearGradient>
    <linearGradient
       id="linearGradient24542-5-8-7">
      <stop
         id="stop24544-6-2-2"
         offset="0"
         style="stop-color:#7c7c7c;stop-opacity:1;" />
      <stop
         id="stop24546-8-5-8"
         offset="1"
         style="stop-color:#323232;stop-opacity:1;" />
    </linearGradient>
    <linearGradient
       id="linearGradient30914-1-4-3">
      <stop
         id="stop30916-1-9-0"
         offset="0"
         style="stop-color:#545f00;stop-opacity:1;" />
      <stop
         id="stop30918-7-8-4"
         offset="1"
         style="stop-color:#000000;stop-opacity:1;" />
    </linearGradient>
    <linearGradient
       id="linearGradient30922-5-3-7">
      <stop
         id="stop30924-3-0-7"
         offset="0"
         style="stop-color:#323232;stop-opacity:1;" />
      <stop
         id="stop30926-0-7-7"
         offset="1"
         style="stop-color:#ffffff;stop-opacity:1;" />
    </linearGradient>
    <linearGradient
       id="linearGradient30930-0-3-0">
      <stop
         id="stop30932-5-8-9"
         offset="0"
         style="stop-color:#7c7c7c;stop-opacity:1;" />
      <stop
         id="stop30934-2-7-9"
         offset="1"
         style="stop-color:#ffffff;stop-opacity:1;" />
    </linearGradient>
    <linearGradient
       id="linearGradient30944-3-4-3">
      <stop
         id="stop30946-9-6-5"
         offset="0"
         style="stop-color:#ffffff;stop-opacity:1;" />
      <stop
         id="stop30948-1-3-3"
         offset="1"
         style="stop-color:#7e7e7e;stop-opacity:1;" />
    </linearGradient>
    <linearGradient
       id="linearGradient6016-8-8-1">
      <stop
         id="stop6018-7-0-7"
         offset="0"
         style="stop-color:#265ba7;stop-opacity:1;" />
      <stop
         id="stop6020-3-2-3"
         offset="1"
         style="stop-color:#1c4177;stop-opacity:1;" />
    </linearGradient>
    <linearGradient
       id="linearGradient6016-8-7">
      <stop
         style="stop-color:#265ba7;stop-opacity:1;"
         offset="0"
         id="stop6018-7-4" />
      <stop
         style="stop-color:#1c4177;stop-opacity:1;"
         offset="1"
         id="stop6020-3-8" />
    </linearGradient>
    <linearGradient
       id="linearGradient30944-3-0">
      <stop
         style="stop-color:#ffffff;stop-opacity:1;"
         offset="0"
         id="stop30946-9-4" />
      <stop
         style="stop-color:#7e7e7e;stop-opacity:1;"
         offset="1"
         id="stop30948-1-5" />
    </linearGradient>
    <linearGradient
       id="linearGradient30930-0-7">
      <stop
         style="stop-color:#7c7c7c;stop-opacity:1;"
         offset="0"
         id="stop30932-5-1" />
      <stop
         style="stop-color:#ffffff;stop-opacity:1;"
         offset="1"
         id="stop30934-2-1" />
    </linearGradient>
    <linearGradient
       id="linearGradient30922-5-2">
      <stop
         style="stop-color:#323232;stop-opacity:1;"
         offset="0"
         id="stop30924-3-2" />
      <stop
         style="stop-color:#ffffff;stop-opacity:1;"
         offset="1"
         id="stop30926-0-3" />
    </linearGradient>
    <linearGradient
       id="linearGradient30914-1-0">
      <stop
         style="stop-color:#545f00;stop-opacity:1;"
         offset="0"
         id="stop30916-1-4" />
      <stop
         style="stop-color:#000000;stop-opacity:1;"
         offset="1"
         id="stop30918-7-6" />
    </linearGradient>
    <linearGradient
       id="linearGradient24542-5-1">
      <stop
         style="stop-color:#7c7c7c;stop-opacity:1;"
         offset="0"
         id="stop24544-6-7" />
      <stop
         style="stop-color:#323232;stop-opacity:1;"
         offset="1"
         id="stop24546-8-2" />
    </linearGradient>
    <linearGradient
       id="linearGradient22786-5-7">
      <stop
         style="stop-color:#737373;stop-opacity:1;"
         offset="0"
         id="stop22788-8-5" />
      <stop
         style="stop-color:#cdcdcd;stop-opacity:1;"
         offset="1"
         id="stop22790-8-6" />
    </linearGradient>
    <linearGradient
       id="linearGradient22774-6-5">
      <stop
         style="stop-color:#dd9144;stop-opacity:1;"
         offset="0"
         id="stop22776-6-4" />
      <stop
         id="stop22784-0-6"
         offset="0"
         style="stop-color:#b06f2e;stop-opacity:1;" />
      <stop
         id="stop22782-7-6"
         offset="1"
         style="stop-color:#633406;stop-opacity:1;" />
    </linearGradient>
    <linearGradient
       id="linearGradient58210-2-2">
      <stop
         style="stop-color:#30a5ff;stop-opacity:1;"
         offset="0"
         id="stop58212-6-6" />
      <stop
         style="stop-color:#a6d9ff;stop-opacity:1;"
         offset="1"
         id="stop58214-1-7" />
    </linearGradient>
    <linearGradient
       id="linearGradient57806-9-2">
      <stop
         id="stop57808-2-1"
         offset="0"
         style="stop-color:#ffffff;stop-opacity:1;" />
      <stop
         id="stop57810-4-5"
         offset="1"
         style="stop-color:#96bcd8;stop-opacity:0" />
    </linearGradient>
    <linearGradient
       id="linearGradient57798-0-27">
      <stop
         style="stop-color:#ababab;stop-opacity:1;"
         offset="0"
         id="stop57800-9-9" />
      <stop
         style="stop-color:#000000;stop-opacity:0;"
         offset="1"
         id="stop57802-0-3" />
    </linearGradient>
    <linearGradient
       id="linearGradient8221-3-7">
      <stop
         style="stop-color:#6fc1ff;stop-opacity:1;"
         offset="0"
         id="stop8223-8-60" />
      <stop
         style="stop-color:#6fc1ff;stop-opacity:0;"
         offset="1"
         id="stop8225-1-1" />
    </linearGradient>
    <linearGradient
       id="linearGradient7336-3-0">
      <stop
         style="stop-color:#ffffff;stop-opacity:1;"
         offset="0"
         id="stop7338-4-75" />
      <stop
         style="stop-color:#6fc1ff;stop-opacity:0;"
         offset="1"
         id="stop7340-5-5" />
    </linearGradient>
    <linearGradient
       inkscape:collect="always"
       xlink:href="#linearGradient8221-3-7"
       id="linearGradient63057-9-3"
       gradientUnits="userSpaceOnUse"
       gradientTransform="matrix(-0.501192,0,0,0.42455,1568.625,-1.981893e-7)"
       x1="380.92273"
       y1="360"
       x2="990"
       y2="360" />
    <linearGradient
       inkscape:collect="always"
       xlink:href="#linearGradient7336-3-0"
       id="linearGradient63059-9-5"
       gradientUnits="userSpaceOnUse"
       gradientTransform="matrix(-0.511281,0,0,0.42455,1578.612,-1.981893e-7)"
       x1="601.20001"
       y1="382.5"
       x2="990"
       y2="382.5" />
    <inkscape:perspective
       sodipodi:type="inkscape:persp3d"
       inkscape:vp_x="0 : 85.039497 : 1"
       inkscape:vp_y="0 : 1000 : 0"
       inkscape:vp_z="779.617 : 85.039497 : 1"
       inkscape:persp3d-origin="389.8085 : 56.692998 : 1"
       id="perspective29-69" />
    <inkscape:perspective
       id="perspective3135-1"
       inkscape:persp3d-origin="0.5 : 0.33333333 : 1"
       inkscape:vp_z="1 : 0.5 : 1"
       inkscape:vp_y="0 : 1000 : 0"
       inkscape:vp_x="0 : 0.5 : 1"
       sodipodi:type="inkscape:persp3d" />
    <inkscape:perspective
       id="perspective3415-3"
       inkscape:persp3d-origin="0.5 : 0.33333333 : 1"
       inkscape:vp_z="1 : 0.5 : 1"
       inkscape:vp_y="0 : 1000 : 0"
       inkscape:vp_x="0 : 0.5 : 1"
       sodipodi:type="inkscape:persp3d" />
    <inkscape:perspective
       id="perspective2861-9"
       inkscape:persp3d-origin="0.5 : 0.33333333 : 1"
       inkscape:vp_z="1 : 0.5 : 1"
       inkscape:vp_y="0 : 1000 : 0"
       inkscape:vp_x="0 : 0.5 : 1"
       sodipodi:type="inkscape:persp3d" />
    <linearGradient
       id="linearGradient6016-1">
      <stop
         style="stop-color:#265ba7;stop-opacity:1;"
         offset="0"
         id="stop6018-3" />
      <stop
         style="stop-color:#1c4177;stop-opacity:1;"
         offset="1"
         id="stop6020-9" />
    </linearGradient>
    <linearGradient
       id="linearGradient30944-0">
      <stop
         style="stop-color:#ffffff;stop-opacity:1;"
         offset="0"
         id="stop30946-6" />
      <stop
         style="stop-color:#7e7e7e;stop-opacity:1;"
         offset="1"
         id="stop30948-7" />
    </linearGradient>
    <linearGradient
       id="linearGradient30930-00">
      <stop
         style="stop-color:#7c7c7c;stop-opacity:1;"
         offset="0"
         id="stop30932-8" />
      <stop
         style="stop-color:#ffffff;stop-opacity:1;"
         offset="1"
         id="stop30934-22" />
    </linearGradient>
    <linearGradient
       id="linearGradient30922-6">
      <stop
         style="stop-color:#323232;stop-opacity:1;"
         offset="0"
         id="stop30924-9" />
      <stop
         style="stop-color:#ffffff;stop-opacity:1;"
         offset="1"
         id="stop30926-5" />
    </linearGradient>
    <linearGradient
       id="linearGradient30914-4">
      <stop
         style="stop-color:#545f00;stop-opacity:1;"
         offset="0"
         id="stop30916-4" />
      <stop
         style="stop-color:#000000;stop-opacity:1;"
         offset="1"
         id="stop30918-6" />
    </linearGradient>
    <linearGradient
       id="linearGradient24542-9">
      <stop
         style="stop-color:#7c7c7c;stop-opacity:1;"
         offset="0"
         id="stop24544-0" />
      <stop
         style="stop-color:#323232;stop-opacity:1;"
         offset="1"
         id="stop24546-5" />
    </linearGradient>
    <linearGradient
       id="linearGradient22786-10">
      <stop
         style="stop-color:#737373;stop-opacity:1;"
         offset="0"
         id="stop22788-2" />
      <stop
         style="stop-color:#cdcdcd;stop-opacity:1;"
         offset="1"
         id="stop22790-2" />
    </linearGradient>
    <linearGradient
       id="linearGradient22774-7">
      <stop
         style="stop-color:#dd9144;stop-opacity:1;"
         offset="0"
         id="stop22776-3" />
      <stop
         id="stop22784-4"
         offset="0"
         style="stop-color:#b06f2e;stop-opacity:1;" />
      <stop
         id="stop22782-5"
         offset="1"
         style="stop-color:#633406;stop-opacity:1;" />
    </linearGradient>
    <linearGradient
       id="linearGradient58210-72">
      <stop
         style="stop-color:#30a5ff;stop-opacity:1;"
         offset="0"
         id="stop58212-68" />
      <stop
         style="stop-color:#a6d9ff;stop-opacity:1;"
         offset="1"
         id="stop58214-0" />
    </linearGradient>
    <linearGradient
       id="linearGradient57806-2">
      <stop
         id="stop57808-12"
         offset="0"
         style="stop-color:#ffffff;stop-opacity:1;" />
      <stop
         id="stop57810-9"
         offset="1"
         style="stop-color:#96bcd8;stop-opacity:0" />
    </linearGradient>
    <linearGradient
       id="linearGradient57798-1">
      <stop
         style="stop-color:#ababab;stop-opacity:1;"
         offset="0"
         id="stop57800-0" />
      <stop
         style="stop-color:#000000;stop-opacity:0;"
         offset="1"
         id="stop57802-2" />
    </linearGradient>
    <linearGradient
       id="linearGradient8221-38">
      <stop
         style="stop-color:#6fc1ff;stop-opacity:1;"
         offset="0"
         id="stop8223-2" />
      <stop
         style="stop-color:#6fc1ff;stop-opacity:0;"
         offset="1"
         id="stop8225-9" />
    </linearGradient>
    <linearGradient
       id="linearGradient7336-33">
      <stop
         style="stop-color:#ffffff;stop-opacity:1;"
         offset="0"
         id="stop7338-9" />
      <stop
         style="stop-color:#6fc1ff;stop-opacity:0;"
         offset="1"
         id="stop7340-1" />
    </linearGradient>
    <linearGradient
       inkscape:collect="always"
       xlink:href="#linearGradient8221-38"
       id="linearGradient63057-1"
       gradientUnits="userSpaceOnUse"
       gradientTransform="matrix(-0.501192,0,0,0.42455,1568.625,-1.981893e-7)"
       x1="380.92273"
       y1="360"
       x2="990"
       y2="360" />
    <linearGradient
       inkscape:collect="always"
       xlink:href="#linearGradient7336-33"
       id="linearGradient63059-6"
       gradientUnits="userSpaceOnUse"
       gradientTransform="matrix(-0.511281,0,0,0.42455,1578.612,-1.981893e-7)"
       x1="601.20001"
       y1="382.5"
       x2="990"
       y2="382.5" />
    <linearGradient
       inkscape:collect="always"
       xlink:href="#linearGradient971"
       id="linearGradient863"
       x1="0"
       y1="0"
       x2="508"
       y2="508"
       gradientUnits="userSpaceOnUse"
       gradientTransform="matrix(0.288,0,0,0.288,7.9999986,900.36218)" />
    <linearGradient
       id="linearGradient971"
       inkscape:collect="always">
      <stop
         style="stop-color:#9005d5;stop-opacity:1"
         offset="0"
         id="stop967" />
      <stop
         style="stop-color:#4f01b2;stop-opacity:1"
         offset="1"
         id="stop969" />
    </linearGradient>
    <linearGradient
       inkscape:collect="always"
       xlink:href="#linearGradient971"
       id="linearGradient1274"
       x1="-610.2832"
       y1="682.51599"
       x2="-578.2832"
       y2="682.51599"
       gradientUnits="userSpaceOnUse" />
    <linearGradient
       inkscape:collect="always"
       xlink:href="#linearGradient971"
       id="linearGradient1276"
       x1="-574.2832"
       y1="682.51599"
       x2="-544.2832"
       y2="682.51599"
       gradientUnits="userSpaceOnUse" />
    <linearGradient
       inkscape:collect="always"
       xlink:href="#linearGradient971"
       id="linearGradient1278"
       x1="-540.2832"
       y1="682.51599"
       x2="-529.2832"
       y2="682.51599"
       gradientUnits="userSpaceOnUse" />
    <linearGradient
       inkscape:collect="always"
       xlink:href="#linearGradient971"
       id="linearGradient1280"
       x1="-525.2832"
       y1="682.51599"
       x2="-502.08633"
       y2="682.38245"
       gradientUnits="userSpaceOnUse" />
    <linearGradient
       inkscape:collect="always"
       xlink:href="#linearGradient971"
       id="linearGradient1282"
       x1="-502.08633"
       y1="682.38245"
       x2="-472.28317"
       y2="682.51599"
       gradientUnits="userSpaceOnUse" />
  </defs>
  <sodipodi:namedview
     id="base"
     pagecolor="#ffffff"
     bordercolor="#666666"
     borderopacity="1.0"
     inkscape:pageopacity="0.0"
     inkscape:pageshadow="2"
     inkscape:zoom="1.4142136"
     inkscape:cx="231.35219"
     inkscape:cy="205.39615"
     inkscape:document-units="px"
     inkscape:current-layer="layer1"
     showgrid="true"
     showguides="false"
     inkscape:guide-bbox="true"
     inkscape:snap-bbox="true"
     inkscape:snap-bbox-midpoints="true"
     inkscape:bbox-nodes="true"
     fit-margin-top="0"
     fit-margin-left="0"
     fit-margin-right="0"
     fit-margin-bottom="0"
     inkscape:bbox-paths="true"
     inkscape:snap-global="true"
     inkscape:window-width="1366"
     inkscape:window-height="681"
     inkscape:window-x="0"
     inkscape:window-y="24"
     inkscape:window-maximized="1"
     inkscape:document-rotation="0">
    <sodipodi:guide
       orientation="1,0"
       position="219,-114.19997"
       id="guide4673" />
    <sodipodi:guide
       orientation="1,0"
       position="228.125,-88.199968"
       id="guide4675" />
    <sodipodi:guide
       orientation="1,0"
       position="231.875,-132.57497"
       id="guide4677" />
    <sodipodi:guide
       orientation="1,0"
       position="234.125,-169.19997"
       id="guide4679" />
    <inkscape:grid
       type="xygrid"
       id="grid3474"
       empspacing="5"
       visible="true"
       enabled="true"
       snapvisiblegridlinesonly="true" />
  </sodipodi:namedview>
  <metadata
     id="metadata7">
    <rdf:RDF>
      <cc:Work
         rdf:about="">
        <dc:format>image/svg+xml</dc:format>
        <dc:type
           rdf:resource="http://purl.org/dc/dcmitype/StillImage" />
        <dc:title />
      </cc:Work>
    </rdf:RDF>
  </metadata>
  <g
     inkscape:label="Layer 1"
     inkscape:groupmode="layer"
     id="layer1"
     transform="translate(822.24649,-261.1908)">
    <g
       id="g1310">
      <g
         id="g847"
         transform="translate(-710.22449,-563.17138)">
        <circle
           style="fill:url(#linearGradient863);fill-opacity:1;stroke:none;stroke-width:0.0990867;stroke-linejoin:round;paint-order:stroke markers fill"
           id="path12"
           cx="80"
           cy="972.36218"
           r="72" />
        <g
           id="g1349"
           transform="matrix(0,0.288,-0.288,0,153.10566,898.06907)">
          <path
             id="path865"
             style="opacity:1;fill:#ffffff;stroke:none;stroke-width:3.21259;stroke-linejoin:round;paint-order:stroke markers fill"
             d="m 934.97461,309.60742 a 642.51965,642.51965 0 0 0 -167.88086,33.31055 l 0.002,0.0234 A 642.51969,642.51969 0 0 0 552.39844,466.89844 L 711.5,558.75391 a 472.44091,472.44091 0 0 1 55.60352,-32.10157 l -0.004,-0.0195 a 472.44087,472.44087 0 0 1 207.82812,-48.18945 472.44087,472.44087 0 0 1 0.043,0 472.44087,472.44087 0 0 1 207.87496,48.18945 v 0.0176 a 472.44091,472.44091 0 0 1 28.3417,15.10742 472.44091,472.44091 0 0 1 27.254,16.99805 l 159.1015,-91.85742 A 642.51969,642.51969 0 0 0 1296.2264,394.46294 642.51969,642.51969 0 0 0 1182.8436,342.9395 v -0.0215 a 642.51965,642.51965 0 0 0 -167.869,-33.30862 V 400 h -79.99999 z m 247.87309,162.53516 v 6.77734 c -0.051,-2.28564 -0.049,-4.54328 0,-6.77734 z M 344.52539,826.94531 a 642.51969,642.51969 0 0 0 0,247.91209 l -0.22851,0.1328 a 642.51965,642.51965 0 0 0 55.09179,162.0391 l 78.28321,-45.1973 40,69.2832 -78.28321,45.1973 a 642.51965,642.51965 0 0 0 112.78321,128.7246 l 0.2246,-0.1269 a 642.51969,642.51969 0 0 0 101.31446,72.4336 642.51969,642.51969 0 0 0 113.38672,51.5234 l 0.004,-183.7149 A 472.44091,472.44091 0 0 1 738.75,1360.0488 472.44091,472.44091 0 0 1 711.49805,1343.0547 l -159.09961,91.8535 158.875,-91.7285 A 472.44091,472.44091 0 0 1 503.39844,983.13281 L 503.62695,983 a 472.44091,472.44091 0 0 1 0,-64.19727 z m 1260.89451,0 -159.0937,91.85938 a 472.44091,472.44091 0 0 1 -0.01,64.19336 l -0.086,-0.0527 a 472.44083,472.44083 0 0 1 -62.1836,204.08585 472.44083,472.44083 0 0 1 -0.016,0.055 472.44083,472.44083 0 0 1 -145.6719,155.9278 l 0.078,0.045 a 472.44091,472.44091 0 0 1 -55.5976,32.0957 v 183.7129 a 642.51969,642.51969 0 0 0 214.7011,-123.957 l -0.082,-0.047 a 642.51961,642.51961 0 0 0 112.7851,-128.7285 l -79.3593,-45.8184 39.998,-69.2832 79.3516,45.8145 a 642.51961,642.51961 0 0 0 55.0937,-162.0391 l 0.092,0.053 a 642.51969,642.51969 0 0 0 0,-247.91399 z"
             transform="matrix(-0.13229167,-0.22913589,0.22913589,-0.13229167,169.05631,600.43015)" />
          <path
             id="path851-3"
             style="fill:#ffffff;stroke:none;stroke-width:1.32485;stroke-linejoin:round;paint-order:stroke markers fill"
             d="m 346.31937,199.65101 c 0.58454,0.98985 1.42697,1.82812 2.46355,2.4257 l 30.70406,17.72757 c 2.07199,1.19628 4.6028,1.20156 6.68108,0.0618 L 416.3365,203.0959 c 1.17,-0.67547 1.96542,-1.48644 2.49831,-2.31016 0.88793,-1.37296 1.0468,-2.79209 0.99182,-3.73526 l -0.57886,-34.48047 c -0.0512,-2.37013 -1.3203,-4.56252 -3.39188,-5.75911 l -30.70403,-17.72754 c -1.03612,-0.59795 -2.18773,-0.89703 -3.33941,-0.90492 -1.15159,-0.0152 -2.3027,0.27593 -3.34173,0.84615 l -30.15522,16.74185 c -2.20232,1.22232 -3.53026,3.52275 -3.48788,6.04113 l 0.56382,34.51282 c 0.0202,1.19935 0.34451,2.34099 0.92867,3.33084 z" />
          <path
             id="path851-3-6"
             style="fill:#ffffff;stroke:none;stroke-width:1.33558;stroke-linejoin:round;paint-order:stroke markers fill"
             d="m 169.68847,200.84039 c 0.56953,-1.00925 0.87674,-2.16726 0.87598,-3.37343 l 4.8e-4,-35.74133 c 4e-5,-2.41192 -1.27102,-4.62407 -3.31364,-5.86399 l -29.84733,-17.88519 c -1.17945,-0.68099 -2.28838,-0.96664 -3.27612,-1.01669 -1.64621,-0.0832 -2.96523,0.49345 -3.76095,1.01685 l -29.81095,17.8852 c -2.043409,1.23934 -3.317765,3.45239 -3.318213,5.86412 l -4.94e-4,35.7413 c 2.23e-4,1.20597 0.31959,2.36211 0.893202,3.37155 0.567205,1.01303 1.401555,1.87127 2.423115,2.49096 l 29.81593,17.88793 c 2.17722,1.30656 4.85494,1.3064 7.0322,3e-5 l 29.84677,-17.88838 c 1.0369,-0.6222 1.87013,-1.48073 2.43987,-2.48966 z" />
          <path
             id="path851-3-0"
             style="fill:#ffffff;stroke:none;stroke-width:1.33558;stroke-linejoin:round;paint-order:stroke markers fill"
             d="m 258.45764,352.875 c -1.1588,0.0114 -2.31527,0.32435 -3.35947,0.9281 l -30.95315,17.87025 c -2.08878,1.20592 -3.36905,3.41276 -3.42149,5.80171 l -0.56536,34.79114 c -3e-5,1.36192 0.30705,2.46512 0.75758,3.34555 0.75107,1.46725 1.90995,2.32124 2.76109,2.74865 l 30.39451,16.87444 c 2.09502,1.14996 4.64875,1.14707 6.73759,-0.0584 l 30.95312,-17.87023 c 1.04429,-0.60317 1.88585,-1.45782 2.47325,-2.4593 0.5937,-0.99774 0.91977,-2.14942 0.94567,-3.34396 l 0.58343,-34.76533 c 0.0429,-2.5388 -1.29608,-4.85769 -3.51607,-6.09007 l -30.41518,-16.90388 c -1.05727,-0.58688 -2.21742,-0.87921 -3.37603,-0.86815 z" />
        </g>
      </g>
      <g
         aria-label="ubuntu unity"
         id="text1208"
         style="font-style:normal;font-weight:normal;font-size:60.166px;line-height:1.25;font-family:sans-serif;fill:#000000;fill-opacity:1;stroke:none;stroke-width:1.50415"
         transform="translate(14.03669,-154.32522)">
        <path
           d="m -793.26841,697.30234 q -1.92532,0.48133 -5.11411,1.02283 -3.12864,0.54149 -7.28009,0.54149 -3.60996,0 -6.07677,-1.02282 -2.4668,-1.08299 -3.97095,-3.0083 -1.50415,-1.92531 -2.16598,-4.51245 -0.66182,-2.64731 -0.66182,-5.8361 v -17.56848 h 5.59543 v 16.36516 q 0,5.71577 1.80498,8.18257 1.80498,2.46681 6.07677,2.46681 0.90249,0 1.86515,-0.0602 0.96265,-0.0602 1.80498,-0.12033 0.84232,-0.12033 1.50415,-0.1805 0.72199,-0.12033 1.02282,-0.24066 v -26.41288 h 5.59544 z"
           style="font-style:normal;font-variant:normal;font-weight:normal;font-stretch:normal;font-family:Ubuntu;-inkscape-font-specification:Ubuntu;fill:#111111;fill-opacity:1;stroke-width:1.50415"
           id="path1210" />
        <path
           d="m -778.04645,668.30233 q 1.02282,-0.66182 3.06846,-1.38382 2.10581,-0.72199 4.81328,-0.72199 3.3693,0 5.95644,1.20332 2.6473,1.20332 4.45228,3.3693 1.80498,2.16597 2.70747,5.17427 0.96266,3.0083 0.96266,6.61826 0,3.79046 -1.14316,6.85893 -1.08298,3.0083 -3.12863,5.11411 -2.04564,2.10581 -4.93361,3.24896 -2.88797,1.14316 -6.49793,1.14316 -3.91079,0 -6.91909,-0.5415 -3.0083,-0.54149 -4.93361,-1.08299 v -44.82367 l 5.59544,-0.96265 z m 0,25.02906 q 0.84232,0.24066 2.34647,0.48133 1.56432,0.18049 3.85063,0.18049 4.51245,0 7.21992,-2.94813 2.70747,-3.0083 2.70747,-8.48341 0,-2.40664 -0.48133,-4.51245 -0.48133,-2.10581 -1.56432,-3.60996 -1.08299,-1.56431 -2.8278,-2.40664 -1.68465,-0.90249 -4.09129,-0.90249 -2.28631,0 -4.21162,0.78216 -1.92531,0.78216 -2.94813,1.62448 z"
           style="font-style:normal;font-variant:normal;font-weight:normal;font-stretch:normal;font-family:Ubuntu;-inkscape-font-specification:Ubuntu;fill:#111111;fill-opacity:1;stroke-width:1.50415"
           id="path1212" />
        <path
           d="m -723.29547,697.30234 q -1.92531,0.48133 -5.11411,1.02283 -3.12863,0.54149 -7.28008,0.54149 -3.60996,0 -6.07677,-1.02282 -2.46681,-1.08299 -3.97096,-3.0083 -1.50415,-1.92531 -2.16597,-4.51245 -0.66183,-2.64731 -0.66183,-5.8361 v -17.56848 h 5.59544 v 16.36516 q 0,5.71577 1.80498,8.18257 1.80498,2.46681 6.07677,2.46681 0.90249,0 1.86514,-0.0602 0.96266,-0.0602 1.80498,-0.12033 0.84233,-0.12033 1.50415,-0.1805 0.72199,-0.12033 1.02282,-0.24066 v -26.41288 h 5.59544 z"
           style="font-style:normal;font-variant:normal;font-weight:normal;font-stretch:normal;font-family:Ubuntu;-inkscape-font-specification:Ubuntu;fill:#111111;fill-opacity:1;stroke-width:1.50415"
           id="path1214" />
        <path
           d="m -713.66894,667.821 q 1.92531,-0.48132 5.11411,-1.02282 3.18879,-0.54149 7.34025,-0.54149 3.73029,0 6.1971,1.08299 2.4668,1.02282 3.91079,2.94813 1.50415,1.86515 2.10581,4.51245 0.60166,2.6473 0.60166,5.8361 v 17.56847 h -5.59544 v -16.36515 q 0,-2.88797 -0.42116,-4.93361 -0.361,-2.04564 -1.26349,-3.30913 -0.90249,-1.26349 -2.40664,-1.80498 -1.50415,-0.60166 -3.73029,-0.60166 -0.90249,0 -1.86515,0.0602 -0.96265,0.0602 -1.86514,0.18049 -0.84233,0.0602 -1.56432,0.1805 -0.66183,0.12033 -0.96266,0.1805 v 26.41287 h -5.59543 z"
           style="font-style:normal;font-variant:normal;font-weight:normal;font-stretch:normal;font-family:Ubuntu;-inkscape-font-specification:Ubuntu;fill:#111111;fill-opacity:1;stroke-width:1.50415"
           id="path1216" />
        <path
           d="m -673.89925,666.91851 h 11.8527 v 4.69295 h -11.8527 v 14.43984 q 0,2.34648 0.36099,3.91079 0.361,1.50415 1.08299,2.40664 0.72199,0.84233 1.80498,1.20332 1.08299,0.361 2.52697,0.361 2.52697,0 4.03112,-0.5415 1.56432,-0.60166 2.16598,-0.84232 l 1.08299,4.63278 q -0.84233,0.42116 -2.94814,1.02282 -2.10581,0.66183 -4.81328,0.66183 -3.18879,0 -5.2946,-0.78216 -2.04565,-0.84232 -3.30913,-2.4668 -1.26349,-1.62449 -1.80498,-3.97096 -0.48133,-2.40664 -0.48133,-5.53527 v -27.91703 l 5.59544,-0.96265 z"
           style="font-style:normal;font-variant:normal;font-weight:normal;font-stretch:normal;font-family:Ubuntu;-inkscape-font-specification:Ubuntu;fill:#111111;fill-opacity:1;stroke-width:1.50415"
           id="path1218" />
        <path
           d="m -630.03833,697.30234 q -1.92531,0.48133 -5.11411,1.02283 -3.12863,0.54149 -7.28008,0.54149 -3.60996,0 -6.07677,-1.02282 -2.4668,-1.08299 -3.97095,-3.0083 -1.50415,-1.92531 -2.16598,-4.51245 -0.66183,-2.64731 -0.66183,-5.8361 v -17.56848 h 5.59544 v 16.36516 q 0,5.71577 1.80498,8.18257 1.80498,2.46681 6.07677,2.46681 0.90249,0 1.86514,-0.0602 0.96266,-0.0602 1.80498,-0.12033 0.84233,-0.12033 1.50415,-0.1805 0.722,-0.12033 1.02283,-0.24066 v -26.41288 h 5.59543 z"
           style="font-style:normal;font-variant:normal;font-weight:normal;font-stretch:normal;font-family:Ubuntu;-inkscape-font-specification:Ubuntu;fill:#111111;fill-opacity:1;stroke-width:1.50415"
           id="path1220" />
        <path
           d="m -581.60479,697.30234 q -1.92532,0.48133 -5.11411,1.02283 -3.12864,0.54149 -7.28009,0.54149 -3.60996,0 -6.07677,-1.02282 -2.4668,-1.08299 -3.97095,-3.0083 -1.50415,-1.92531 -2.16598,-4.51245 -0.66182,-2.64731 -0.66182,-5.8361 v -17.56848 h 5.59543 v 16.36516 q 0,5.71577 1.80498,8.18257 1.80498,2.46681 6.07677,2.46681 0.90249,0 1.86515,-0.0602 0.96265,-0.0602 1.80498,-0.12033 0.84232,-0.12033 1.50415,-0.1805 0.72199,-0.12033 1.02282,-0.24066 v -26.41288 h 5.59544 z"
           style="font-style:normal;font-variant:normal;font-weight:normal;font-stretch:normal;font-family:Ubuntu;-inkscape-font-specification:Ubuntu;fill:url(#linearGradient1274);fill-opacity:1;stroke-width:1.50415"
           id="path1222" />
        <path
           d="m -571.97827,667.821 q 1.92531,-0.48132 5.11411,-1.02282 3.1888,-0.54149 7.34025,-0.54149 3.73029,0 6.1971,1.08299 2.46681,1.02282 3.91079,2.94813 1.50415,1.86515 2.10581,4.51245 0.60166,2.6473 0.60166,5.8361 v 17.56847 h -5.59544 v -16.36515 q 0,-2.88797 -0.42116,-4.93361 -0.361,-2.04564 -1.26349,-3.30913 -0.90249,-1.26349 -2.40664,-1.80498 -1.50415,-0.60166 -3.73029,-0.60166 -0.90249,0 -1.86514,0.0602 -0.96266,0.0602 -1.86515,0.18049 -0.84232,0.0602 -1.56432,0.1805 -0.66182,0.12033 -0.96265,0.1805 v 26.41287 h -5.59544 z"
           style="font-style:normal;font-variant:normal;font-weight:normal;font-stretch:normal;font-family:Ubuntu;-inkscape-font-specification:Ubuntu;fill:url(#linearGradient1276);fill-opacity:1;stroke-width:1.50415"
           id="path1224" />
        <path
           d="m -531.84757,698.20483 h -5.59544 v -31.28632 h 5.59544 z m -2.8278,-36.94192 q -1.50415,0 -2.58714,-0.96266 -1.02282,-1.02282 -1.02282,-2.70747 0,-1.68464 1.02282,-2.6473 1.08299,-1.02282 2.58714,-1.02282 1.50415,0 2.52697,1.02282 1.08299,0.96266 1.08299,2.6473 0,1.68465 -1.08299,2.70747 -1.02282,0.96266 -2.52697,0.96266 z"
           style="font-style:normal;font-variant:normal;font-weight:normal;font-stretch:normal;font-family:Ubuntu;-inkscape-font-specification:Ubuntu;fill:url(#linearGradient1278);fill-opacity:1;stroke-width:1.50415"
           id="path1226" />
        <path
           d="m -516.98667,666.91851 h 11.8527 v 4.69295 h -11.8527 v 14.43984 q 0,2.34648 0.36099,3.91079 0.361,1.50415 1.08299,2.40664 0.72199,0.84233 1.80498,1.20332 1.08299,0.361 2.52697,0.361 2.52698,0 4.03113,-0.5415 1.56431,-0.60166 2.16597,-0.84232 l 1.08299,4.63278 q -0.84232,0.42116 -2.94813,1.02282 -2.10581,0.66183 -4.81328,0.66183 -3.1888,0 -5.29461,-0.78216 -2.04565,-0.84232 -3.30913,-2.4668 -1.26349,-1.62449 -1.80498,-3.97096 -0.48133,-2.40664 -0.48133,-5.53527 v -27.91703 l 5.59544,-0.96265 z"
           style="font-style:normal;font-variant:normal;font-weight:normal;font-stretch:normal;font-family:Ubuntu;-inkscape-font-specification:Ubuntu;fill:url(#linearGradient1280);fill-opacity:1;stroke-width:1.50415"
           id="path1228" />
        <path
           d="m -501.70459,704.04094 q 0.66182,0.30083 1.68464,0.54149 1.08299,0.30083 2.10581,0.30083 3.30913,0 5.17428,-1.50415 1.86515,-1.44398 3.3693,-4.75311 -3.79046,-7.21992 -7.09959,-15.28217 -3.24897,-8.12241 -5.41494,-16.42532 h 6.0166 q 0.66182,2.70747 1.56431,5.83611 0.96266,3.12863 2.10581,6.43776 1.14316,3.30913 2.46681,6.61826 1.32365,3.30913 2.76764,6.37759 2.2863,-6.31743 3.97095,-12.51452 1.68465,-6.1971 3.1888,-12.7552 h 5.77594 q -2.16598,8.84441 -4.81328,17.02698 -2.64731,8.12241 -5.71577,15.222 -1.20332,2.70747 -2.52698,4.63278 -1.26348,1.98548 -2.8278,3.24897 -1.56431,1.26348 -3.54979,1.86514 -1.92531,0.60166 -4.39212,0.60166 -0.66183,0 -1.38382,-0.12033 -0.72199,-0.0602 -1.44398,-0.24066 -0.66183,-0.12034 -1.26349,-0.30083 -0.54149,-0.1805 -0.78216,-0.30083 z"
           style="font-style:normal;font-variant:normal;font-weight:normal;font-stretch:normal;font-family:Ubuntu;-inkscape-font-specification:Ubuntu;fill:url(#linearGradient1282);fill-opacity:1;stroke-width:1.50415"
           id="path1230" />
      </g>
    </g>
  </g>
</svg>
